<svg width="56" height="72" viewBox="0 0 56 72" fill="none" xmlns="http://www.w3.org/2000/svg">
<path fill-rule="evenodd" clip-rule="evenodd" d="M28 0C30.2091 0 32 1.79086 32 4L32 68C32 70.2091 30.2091 72 28 72C25.7909 72 24 70.2091 24 68L24 4C24 1.79086 25.7909 0 28 0ZM4 36C6.20914 36 8 37.7909 8 40V68C8 70.2091 6.20914 72 4 72C1.79086 72 0 70.2091 0 68V40C0 37.7909 1.79086 36 4 36ZM56 28C56 25.7909 54.2091 24 52 24C49.7909 24 48 25.7909 48 28V68C48 70.2091 49.7909 72 52 72C54.2091 72 56 70.2091 56 68V28Z" fill="#111222"/>
</svg>
