<svg width="44" height="72" viewBox="0 0 44 72" fill="none"
     xmlns="http://www.w3.org/2000/svg">
  <path fill-rule="evenodd" clip-rule="evenodd"
        d="M27 4C27 1.79086 25.2091 0 23 0C20.7909 0 19 1.79086 19 4V8H16C7.16345 8 3.8147e-06 15.1634 3.8147e-06 24C3.8147e-06 32.8366 7.16345 40 16 40H19V56H4C1.79086 56 0 57.7909 0 60C0 62.2091 1.79086 64 4 64H19V68C19 70.2091 20.7909 72 23 72C25.2091 72 27 70.2091 27 68V64H28C36.8366 64 44 56.8366 44 48C44 39.1634 36.8366 32 28 32H27V16H40C42.2091 16 44 14.2091 44 12C44 9.79086 42.2091 8 40 8H27V4ZM19 16H16C11.5817 16 8 19.5817 8 24C8 28.4183 11.5817 32 16 32H19V16ZM27 40V56H28C32.4183 56 36 52.4183 36 48C36 43.5817 32.4183 40 28 40H27Z"
        fill="url(#paint0_linear)"/>
  <defs>
    <linearGradient id="paint0_linear" x1="-2.81725e-07" y1="36" x2="44" y2="36"
                    gradientUnits="userSpaceOnUse">
      <stop stop-color="#9925CF"/>
      <stop offset="1" stop-color="#FD0173"/>
    </linearGradient>
  </defs>
</svg>
