<svg width="22" height="22" viewBox="0 0 22 22" fill="none"
     xmlns="http://www.w3.org/2000/svg">
  <path fill-rule="evenodd" clip-rule="evenodd"
        d="M11.8205 0.333252V9.93325H15.9231L11 16.3333L6.0769 9.93325H10.1795V0.333252H11.8205ZM0.333313 14.4666V20.8666V21.6666H1.15383H20.8461H21.6666V20.8666V14.4666H20.0256V20.0666H1.97434V14.4666H0.333313Z"
        fill="#888890"/>
</svg>
