<svg width="48" height="48" viewBox="0 0 48 48" fill="none"
     xmlns="http://www.w3.org/2000/svg">
  <rect width="48" height="48" rx="24" fill="white"/>
  <path
    d="M20.808 34V24.6154H18V21.2365H20.808V18.3505C20.808 16.0826 22.4668 14 26.2888 14C27.8363 14 28.9806 14.1311 28.9806 14.1311L28.8904 17.2864C28.8904 17.2864 27.7234 17.2764 26.45 17.2764C25.0717 17.2764 24.8508 17.8377 24.8508 18.7693V21.2365H29L28.8195 24.6154H24.8508V34H20.808Z"
    fill="#111222"/>
</svg>
