<svg width="48" height="48" viewBox="0 0 48 48" fill="none" xmlns="http://www.w3.org/2000/svg">
<rect width="48" height="48" rx="24" fill="white"/>
<path d="M31.0415 31.0413H28.078V26.4004C28.078 25.2937 28.0583 23.8691 26.5367 23.8691C24.9933 23.8691 24.7571 25.0749 24.7571 26.3199V31.041H21.7936V21.4974H24.6385V22.8016H24.6784C24.9631 22.3148 25.3745 21.9144 25.8688 21.6429C26.3631 21.3714 26.9218 21.2391 27.4854 21.26C30.489 21.26 31.0427 23.2357 31.0427 25.8059L31.0415 31.0413ZM18.4498 20.1929C18.1097 20.1929 17.7772 20.0921 17.4943 19.9032C17.2115 19.7143 16.991 19.4457 16.8608 19.1315C16.7306 18.8173 16.6965 18.4715 16.7628 18.1379C16.8291 17.8043 16.9928 17.4979 17.2333 17.2573C17.4737 17.0167 17.7801 16.8529 18.1137 16.7865C18.4473 16.7201 18.7931 16.7541 19.1074 16.8842C19.4216 17.0143 19.6902 17.2347 19.8793 17.5174C20.0683 17.8002 20.1692 18.1327 20.1693 18.4728C20.1693 18.6987 20.1249 18.9223 20.0385 19.131C19.9521 19.3396 19.8255 19.5292 19.6658 19.6889C19.5061 19.8487 19.3166 19.9754 19.1079 20.0618C18.8993 20.1483 18.6757 20.1928 18.4498 20.1929ZM19.9316 31.0413H16.965V21.4974H19.9316V31.0413ZM32.5189 14.0014H15.4759C15.089 13.997 14.7163 14.1464 14.4395 14.4167C14.1628 14.687 14.0047 15.0561 14 15.443V32.5567C14.0046 32.9438 14.1626 33.3131 14.4393 33.5837C14.716 33.8543 15.0889 34.004 15.4759 33.9999H32.5189C32.9067 34.0047 33.2806 33.8555 33.5584 33.5849C33.8362 33.3143 33.9953 32.9445 34.0007 32.5567V15.4417C33.9951 15.0541 33.836 14.6846 33.5581 14.4143C33.2803 14.144 32.9065 13.995 32.5189 14.0001" fill="#111222"/>
</svg>
